blatt04/4.1_mux/testbench.vcd
$date
  Tue Nov  8 21:45:09 2022
$end
$version
  GHDL v0
$end
$timescale
  1 fs
$end
$scope module standard $end
$upscope $end
$scope module std_logic_1164 $end
$upscope $end
$scope module mux81_tb $end
$var reg 3 ! i0_81[2:0] $end
$var reg 3 " i1_81[2:0] $end
$var reg 3 # i2_81[2:0] $end
$var reg 3 $ i3_81[2:0] $end
$var reg 3 % i4_81[2:0] $end
$var reg 3 & i5_81[2:0] $end
$var reg 3 ' i6_81[2:0] $end
$var reg 3 ( i7_81[2:0] $end
$var reg 3 ) sel_81[2:0] $end
$var reg 3 * y_81[2:0] $end
$scope module multiplex $end
$var reg 3 + i0_81[2:0] $end
$var reg 3 , i1_81[2:0] $end
$var reg 3 - i2_81[2:0] $end
$var reg 3 . i3_81[2:0] $end
$var reg 3 / i4_81[2:0] $end
$var reg 3 0 i5_81[2:0] $end
$var reg 3 1 i6_81[2:0] $end
$var reg 3 2 i7_81[2:0] $end
$var reg 3 3 sel_81[2:0] $end
$var reg 3 4 y_81[2:0] $end
$var reg 3 5 mux41_result1[2:0] $end
$var reg 3 6 mux41_result2[2:0] $end
$var reg 3 7 and_result1[2:0] $end
$var reg 3 8 and_result2[2:0] $end
$var reg 2 9 sel01[1:0] $end
$var reg 1 : not_sel2 $end
$scope module not1 $end
$var reg 1 ; input1 $end
$var reg 1 < not_output $end
$var reg 1 = notgate $end
$upscope $end
$scope module mux41_1 $end
$var reg 3 > i0[2:0] $end
$var reg 3 ? i1[2:0] $end
$var reg 3 @ i2[2:0] $end
$var reg 3 A i3[2:0] $end
$var reg 2 B sel[1:0] $end
$var reg 3 C y[2:0] $end
$var reg 2 D not_sel[1:0] $end
$var reg 3 E and_output1[2:0] $end
$var reg 3 F and_output2[2:0] $end
$var reg 3 G and_output3[2:0] $end
$var reg 3 H and_output4[2:0] $end
$scope module not_sel_assingment(0) $end
$scope module not_output1 $end
$var reg 1 I input1 $end
$var reg 1 J not_output $end
$var reg 1 K notgate $end
$upscope $end
$upscope $end
$scope module not_sel_assingment(1) $end
$scope module not_output1 $end
$var reg 1 L input1 $end
$var reg 1 M not_output $end
$var reg 1 N notgate $end
$upscope $end
$upscope $end
$scope module and_gate_assignment(0) $end
$scope module and_1 $end
$var reg 1 O input1 $end
$var reg 1 P input2 $end
$var reg 1 Q input3 $end
$var reg 1 R and_output $end
$var reg 1 S andgate $end
$upscope $end
$scope module and_2 $end
$var reg 1 T input1 $end
$var reg 1 U input2 $end
$var reg 1 V input3 $end
$var reg 1 W and_output $end
$var reg 1 X andgate $end
$upscope $end
$scope module and_3 $end
$var reg 1 Y input1 $end
$var reg 1 Z input2 $end
$var reg 1 [ input3 $end
$var reg 1 \ and_output $end
$var reg 1 ] andgate $end
$upscope $end
$scope module and_4 $end
$var reg 1 ^ input1 $end
$var reg 1 _ input2 $end
$var reg 1 ` input3 $end
$var reg 1 a and_output $end
$var reg 1 b andgate $end
$upscope $end
$upscope $end
$scope module and_gate_assignment(1) $end
$scope module and_1 $end
$var reg 1 c input1 $end
$var reg 1 d input2 $end
$var reg 1 e input3 $end
$var reg 1 f and_output $end
$var reg 1 g andgate $end
$upscope $end
$scope module and_2 $end
$var reg 1 h input1 $end
$var reg 1 i input2 $end
$var reg 1 j input3 $end
$var reg 1 k and_output $end
$var reg 1 l andgate $end
$upscope $end
$scope module and_3 $end
$var reg 1 m input1 $end
$var reg 1 n input2 $end
$var reg 1 o input3 $end
$var reg 1 p and_output $end
$var reg 1 q andgate $end
$upscope $end
$scope module and_4 $end
$var reg 1 r input1 $end
$var reg 1 s input2 $end
$var reg 1 t input3 $end
$var reg 1 u and_output $end
$var reg 1 v andgate $end
$upscope $end
$upscope $end
$scope module and_gate_assignment(2) $end
$scope module and_1 $end
$var reg 1 w input1 $end
$var reg 1 x input2 $end
$var reg 1 y input3 $end
$var reg 1 z and_output $end
$var reg 1 { andgate $end
$upscope $end
$scope module and_2 $end
$var reg 1 | input1 $end
$var reg 1 } input2 $end
$var reg 1 !" input3 $end
$var reg 1 "" and_output $end
$var reg 1 #" andgate $end
$upscope $end
$scope module and_3 $end
$var reg 1 $" input1 $end
$var reg 1 %" input2 $end
$var reg 1 &" input3 $end
$var reg 1 '" and_output $end
$var reg 1 (" andgate $end
$upscope $end
$scope module and_4 $end
$var reg 1 )" input1 $end
$var reg 1 *" input2 $end
$var reg 1 +" input3 $end
$var reg 1 ," and_output $end
$var reg 1 -" andgate $end
$upscope $end
$upscope $end
$scope module or_gate_assingment(0) $end
$scope module or_output $end
$var reg 1 ." input1 $end
$var reg 1 /" input2 $end
$var reg 1 0" input3 $end
$var reg 1 1" input4 $end
$var reg 1 2" or_result $end
$var reg 1 3" orgate $end
$upscope $end
$upscope $end
$scope module or_gate_assingment(1) $end
$scope module or_output $end
$var reg 1 4" input1 $end
$var reg 1 5" input2 $end
$var reg 1 6" input3 $end
$var reg 1 7" input4 $end
$var reg 1 8" or_result $end
$var reg 1 9" orgate $end
$upscope $end
$upscope $end
$scope module or_gate_assingment(2) $end
$scope module or_output $end
$var reg 1 :" input1 $end
$var reg 1 ;" input2 $end
$var reg 1 <" input3 $end
$var reg 1 =" input4 $end
$var reg 1 >" or_result $end
$var reg 1 ?" orgate $end
$upscope $end
$upscope $end
$upscope $end
$scope module mux41_2 $end
$var reg 3 @" i0[2:0] $end
$var reg 3 A" i1[2:0] $end
$var reg 3 B" i2[2:0] $end
$var reg 3 C" i3[2:0] $end
$var reg 2 D" sel[1:0] $end
$var reg 3 E" y[2:0] $end
$var reg 2 F" not_sel[1:0] $end
$var reg 3 G" and_output1[2:0] $end
$var reg 3 H" and_output2[2:0] $end
$var reg 3 I" and_output3[2:0] $end
$var reg 3 J" and_output4[2:0] $end
$scope module not_sel_assingment(0) $end
$scope module not_output1 $end
$var reg 1 K" input1 $end
$var reg 1 L" not_output $end
$var reg 1 M" notgate $end
$upscope $end
$upscope $end
$scope module not_sel_assingment(1) $end
$scope module not_output1 $end
$var reg 1 N" input1 $end
$var reg 1 O" not_output $end
$var reg 1 P" notgate $end
$upscope $end
$upscope $end
$scope module and_gate_assignment(0) $end
$scope module and_1 $end
$var reg 1 Q" input1 $end
$var reg 1 R" input2 $end
$var reg 1 S" input3 $end
$var reg 1 T" and_output $end
$var reg 1 U" andgate $end
$upscope $end
$scope module and_2 $end
$var reg 1 V" input1 $end
$var reg 1 W" input2 $end
$var reg 1 X" input3 $end
$var reg 1 Y" and_output $end
$var reg 1 Z" andgate $end
$upscope $end
$scope module and_3 $end
$var reg 1 [" input1 $end
$var reg 1 \" input2 $end
$var reg 1 ]" input3 $end
$var reg 1 ^" and_output $end
$var reg 1 _" andgate $end
$upscope $end
$scope module and_4 $end
$var reg 1 `" input1 $end
$var reg 1 a" input2 $end
$var reg 1 b" input3 $end
$var reg 1 c" and_output $end
$var reg 1 d" andgate $end
$upscope $end
$upscope $end
$scope module and_gate_assignment(1) $end
$scope module and_1 $end
$var reg 1 e" input1 $end
$var reg 1 f" input2 $end
$var reg 1 g" input3 $end
$var reg 1 h" and_output $end
$var reg 1 i" andgate $end
$upscope $end
$scope module and_2 $end
$var reg 1 j" input1 $end
$var reg 1 k" input2 $end
$var reg 1 l" input3 $end
$var reg 1 m" and_output $end
$var reg 1 n" andgate $end
$upscope $end
$scope module and_3 $end
$var reg 1 o" input1 $end
$var reg 1 p" input2 $end
$var reg 1 q" input3 $end
$var reg 1 r" and_output $end
$var reg 1 s" andgate $end
$upscope $end
$scope module and_4 $end
$var reg 1 t" input1 $end
$var reg 1 u" input2 $end
$var reg 1 v" input3 $end
$var reg 1 w" and_output $end
$var reg 1 x" andgate $end
$upscope $end
$upscope $end
$scope module and_gate_assignment(2) $end
$scope module and_1 $end
$var reg 1 y" input1 $end
$var reg 1 z" input2 $end
$var reg 1 {" input3 $end
$var reg 1 |" and_output $end
$var reg 1 }" andgate $end
$upscope $end
$scope module and_2 $end
$var reg 1 !# input1 $end
$var reg 1 "# input2 $end
$var reg 1 ## input3 $end
$var reg 1 $# and_output $end
$var reg 1 %# andgate $end
$upscope $end
$scope module and_3 $end
$var reg 1 &# input1 $end
$var reg 1 '# input2 $end
$var reg 1 (# input3 $end
$var reg 1 )# and_output $end
$var reg 1 *# andgate $end
$upscope $end
$scope module and_4 $end
$var reg 1 +# input1 $end
$var reg 1 ,# input2 $end
$var reg 1 -# input3 $end
$var reg 1 .# and_output $end
$var reg 1 /# andgate $end
$upscope $end
$upscope $end
$scope module or_gate_assingment(0) $end
$scope module or_output $end
$var reg 1 0# input1 $end
$var reg 1 1# input2 $end
$var reg 1 2# input3 $end
$var reg 1 3# input4 $end
$var reg 1 4# or_result $end
$var reg 1 5# orgate $end
$upscope $end
$upscope $end
$scope module or_gate_assingment(1) $end
$scope module or_output $end
$var reg 1 6# input1 $end
$var reg 1 7# input2 $end
$var reg 1 8# input3 $end
$var reg 1 9# input4 $end
$var reg 1 :# or_result $end
$var reg 1 ;# orgate $end
$upscope $end
$upscope $end
$scope module or_gate_assingment(2) $end
$scope module or_output $end
$var reg 1 <# input1 $end
$var reg 1 =# input2 $end
$var reg 1 ># input3 $end
$var reg 1 ?# input4 $end
$var reg 1 @# or_result $end
$var reg 1 A# orgate $end
$upscope $end
$upscope $end
$upscope $end
$scope module and_assingment(0) $end
$scope module and1 $end
$var reg 1 B# input1 $end
$var reg 1 C# input2 $end
$var reg 1 D# input3 $end
$var reg 1 E# and_output $end
$var reg 1 F# andgate $end
$upscope $end
$scope module and2 $end
$var reg 1 G# input1 $end
$var reg 1 H# input2 $end
$var reg 1 I# input3 $end
$var reg 1 J# and_output $end
$var reg 1 K# andgate $end
$upscope $end
$upscope $end
$scope module and_assingment(1) $end
$scope module and1 $end
$var reg 1 L# input1 $end
$var reg 1 M# input2 $end
$var reg 1 N# input3 $end
$var reg 1 O# and_output $end
$var reg 1 P# andgate $end
$upscope $end
$scope module and2 $end
$var reg 1 Q# input1 $end
$var reg 1 R# input2 $end
$var reg 1 S# input3 $end
$var reg 1 T# and_output $end
$var reg 1 U# andgate $end
$upscope $end
$upscope $end
$scope module and_assingment(2) $end
$scope module and1 $end
$var reg 1 V# input1 $end
$var reg 1 W# input2 $end
$var reg 1 X# input3 $end
$var reg 1 Y# and_output $end
$var reg 1 Z# andgate $end
$upscope $end
$scope module and2 $end
$var reg 1 [# input1 $end
$var reg 1 \# input2 $end
$var reg 1 ]# input3 $end
$var reg 1 ^# and_output $end
$var reg 1 _# andgate $end
$upscope $end
$upscope $end
$scope module or_assingment(0) $end
$scope module or_result $end
$var reg 1 `# input1 $end
$var reg 1 a# input2 $end
$var reg 1 b# input3 $end
$var reg 1 c# input4 $end
$var reg 1 d# or_result $end
$var reg 1 e# orgate $end
$upscope $end
$upscope $end
$scope module or_assingment(1) $end
$scope module or_result $end
$var reg 1 f# input1 $end
$var reg 1 g# input2 $end
$var reg 1 h# input3 $end
$var reg 1 i# input4 $end
$var reg 1 j# or_result $end
$var reg 1 k# orgate $end
$upscope $end
$upscope $end
$scope module or_assingment(2) $end
$scope module or_result $end
$var reg 1 l# input1 $end
$var reg 1 m# input2 $end
$var reg 1 n# input3 $end
$var reg 1 o# input4 $end
$var reg 1 p# or_result $end
$var reg 1 q# orgate $end
$upscope $end
$upscope $end
$upscope $end
$upscope $end
$enddefinitions $end
#0
b000 !
b001 "
b010 #
b011 $
b100 %
b101 &
b110 '
b111 (
b000 )
b000 *
b000 +
b001 ,
b010 -
b011 .
b100 /
b101 0
b110 1
b111 2
b000 3
b000 4
b000 5
b100 6
b000 7
b000 8
b00 9
1:
0;
1<
1=
b000 >
b001 ?
b010 @
b011 A
b00 B
b000 C
b11 D
b000 E
b000 F
b000 G
b000 H
0I
1J
1K
0L
1M
1N
0O
1P
1Q
0R
0S
1T
0U
1V
0W
0X
0Y
1Z
0[
0\
0]
1^
0_
0`
0a
0b
0c
1d
1e
0f
0g
0h
0i
1j
0k
0l
1m
1n
0o
0p
0q
1r
0s
0t
0u
0v
0w
1x
1y
0z
0{
0|
0}
1!"
0""
0#"
0$"
1%"
0&"
0'"
0("
0)"
0*"
0+"
0,"
0-"
0."
0/"
00"
01"
02"
03"
04"
05"
06"
07"
08"
09"
0:"
0;"
0<"
0="
0>"
0?"
b100 @"
b101 A"
b110 B"
b111 C"
b00 D"
b100 E"
b11 F"
b100 G"
b000 H"
b000 I"
b000 J"
0K"
1L"
1M"
0N"
1O"
1P"
0Q"
1R"
1S"
0T"
0U"
1V"
0W"
1X"
0Y"
0Z"
0["
1\"
0]"
0^"
0_"
1`"
0a"
0b"
0c"
0d"
0e"
1f"
1g"
0h"
0i"
0j"
0k"
1l"
0m"
0n"
1o"
1p"
0q"
0r"
0s"
1t"
0u"
0v"
0w"
0x"
1y"
1z"
1{"
1|"
1}"
1!#
0"#
1##
0$#
0%#
1&#
1'#
0(#
0)#
0*#
1+#
0,#
0-#
0.#
0/#
00#
01#
02#
03#
04#
05#
06#
07#
08#
09#
0:#
0;#
1<#
0=#
0>#
0?#
1@#
1A#
0B#
1C#
1D#
0E#
0F#
0G#
0H#
1I#
0J#
0K#
0L#
1M#
1N#
0O#
0P#
0Q#
0R#
1S#
0T#
0U#
0V#
1W#
1X#
0Y#
0Z#
1[#
0\#
1]#
0^#
0_#
0`#
0a#
0b#
0c#
0d#
0e#
0f#
0g#
0h#
0i#
0j#
0k#
0l#
0m#
0n#
0o#
0p#
0q#
#10000000
b001 )
b001 *
b001 3
b001 4
b001 5
b101 6
b001 7
b01 9
b01 B
b001 C
b10 D
b001 F
1I
0J
0K
0P
1U
1W
1X
0Z
1_
0d
1i
0n
1s
0x
1}
0%"
1*"
1/"
12"
13"
b01 D"
b101 E"
b10 F"
b000 G"
b101 H"
1K"
0L"
0M"
0R"
1W"
1Y"
1Z"
0\"
1a"
0f"
1k"
0p"
1u"
0z"
0|"
0}"
1"#
1$#
1%#
0'#
1,#
11#
14#
15#
0<#
1=#
1B#
1E#
1F#
1G#
1`#
1d#
1e#
#20000000
b010 )
b010 *
b010 3
b010 4
b010 5
b110 6
b010 7
b10 9
b10 B
b010 C
b01 D
b000 F
b010 G
0I
1J
1K
1L
0M
0N
1P
0Q
0U
0V
0W
0X
1Z
1[
0_
1`
1d
0e
0i
0j
1n
1o
1p
1q
0s
1t
1x
0y
0}
0!"
1%"
1&"
0*"
1+"
0/"
02"
03"
16"
18"
19"
b10 D"
b110 E"
b01 F"
b000 H"
b110 I"
0K"
1L"
1M"
1N"
0O"
0P"
1R"
0S"
0W"
0X"
0Y"
0Z"
1\"
1]"
0a"
1b"
1f"
0g"
0k"
0l"
1p"
1q"
1r"
1s"
0u"
1v"
1z"
0{"
0"#
0##
0$#
0%#
1'#
1(#
1)#
1*#
0,#
1-#
01#
04#
05#
18#
1:#
1;#
0=#
1>#
1@#
1A#
0B#
0E#
0F#
0G#
1L#
1O#
1P#
1Q#
1[#
0`#
0d#
0e#
1f#
1j#
1k#
#30000000
b011 )
b011 *
b011 3
b011 4
b011 5
b111 6
b011 7
b11 9
b11 B
b011 C
b00 D
b000 G
b011 H
1I
0J
0K
0P
1U
0Z
1_
1a
1b
0d
1i
0n
0p
0q
1s
1u
1v
0x
1}
0%"
1*"
11"
12"
13"
06"
17"
b11 D"
b111 E"
b00 F"
b000 I"
b111 J"
1K"
0L"
0M"
0R"
1W"
0\"
1a"
1c"
1d"
0f"
1k"
0p"
0r"
0s"
1u"
1w"
1x"
0z"
1"#
0'#
0)#
0*#
1,#
1.#
1/#
13#
14#
15#
08#
19#
0>#
1?#
1B#
1E#
1F#
1G#
1`#
1d#
1e#
#40000000
b100 )
b100 *
b100 3
b100 4
b000 5
b100 6
b000 7
b100 8
b00 9
0:
1;
0<
0=
b00 B
b000 C
b11 D
b000 H
0I
1J
1K
0L
1M
1N
1P
1Q
0U
1V
1Z
0[
0_
0`
0a
0b
1d
1e
0i
1j
1n
0o
0s
0t
0u
0v
1x
1y
0}
1!"
1%"
0&"
0*"
0+"
01"
02"
03"
07"
08"
09"
b00 D"
b100 E"
b11 F"
b100 G"
b000 J"
0K"
1L"
1M"
0N"
1O"
1P"
1R"
1S"
0W"
1X"
1\"
0]"
0a"
0b"
0c"
0d"
1f"
1g"
0k"
1l"
1p"
0q"
0u"
0v"
0w"
0x"
1z"
1{"
1|"
1}"
0"#
1##
1'#
0(#
0,#
0-#
0.#
0/#
03#
04#
05#
09#
0:#
0;#
1<#
0?#
1@#
1A#
0B#
0C#
0E#
0F#
0G#
1H#
0J#
0K#
0L#
0M#
0O#
0P#
0Q#
1R#
0T#
0U#
0W#
1[#
1\#
1^#
1_#
0`#
0a#
0d#
0e#
0f#
0g#
0j#
0k#
1m#
1p#
1q#
#50000000
b101 )
b101 *
b101 3
b101 4
b001 5
b101 6
b101 8
b01 9
b01 B
b001 C
b10 D
b001 F
1I
0J
0K
0P
1U
1W
1X
0Z
1_
0d
1i
0n
1s
0x
1}
0%"
1*"
1/"
12"
13"
b01 D"
b101 E"
b10 F"
b000 G"
b101 H"
1K"
0L"
0M"
0R"
1W"
1Y"
1Z"
0\"
1a"
0f"
1k"
0p"
1u"
0z"
0|"
0}"
1"#
1$#
1%#
0'#
1,#
11#
14#
15#
0<#
1=#
1B#
1G#
1J#
1K#
1a#
1d#
1e#
#60000000
b110 )
b110 *
b110 3
b110 4
b010 5
b110 6
b110 8
b10 9
b10 B
b010 C
b01 D
b000 F
b010 G
0I
1J
1K
1L
0M
0N
1P
0Q
0U
0V
0W
0X
1Z
1[
0_
1`
1d
0e
0i
0j
1n
1o
1p
1q
0s
1t
1x
0y
0}
0!"
1%"
1&"
0*"
1+"
0/"
02"
03"
16"
18"
19"
b10 D"
b110 E"
b01 F"
b000 H"
b110 I"
0K"
1L"
1M"
1N"
0O"
0P"
1R"
0S"
0W"
0X"
0Y"
0Z"
1\"
1]"
0a"
1b"
1f"
0g"
0k"
0l"
1p"
1q"
1r"
1s"
0u"
1v"
1z"
0{"
0"#
0##
0$#
0%#
1'#
1(#
1)#
1*#
0,#
1-#
01#
04#
05#
18#
1:#
1;#
0=#
1>#
1@#
1A#
0B#
0G#
0J#
0K#
1L#
1Q#
1T#
1U#
1[#
1^#
1_#
0a#
0d#
0e#
1g#
1j#
1k#
1m#
1p#
1q#
#70000000
b111 )
b111 *
b111 3
b111 4
b011 5
b111 6
b111 8
b11 9
b11 B
b011 C
b00 D
b000 G
b011 H
1I
0J
0K
0P
1U
0Z
1_
1a
1b
0d
1i
0n
0p
0q
1s
1u
1v
0x
1}
0%"
1*"
11"
12"
13"
06"
17"
b11 D"
b111 E"
b00 F"
b000 I"
b111 J"
1K"
0L"
0M"
0R"
1W"
0\"
1a"
1c"
1d"
0f"
1k"
0p"
0r"
0s"
1u"
1w"
1x"
0z"
1"#
0'#
0)#
0*#
1,#
1.#
1/#
13#
14#
15#
08#
19#
0>#
1?#
1B#
1G#
1J#
1K#
1a#
1d#
1e#
